%YAML 1.1
%TAG !u! tag:unity3d.com,2011:
--- !u!114 &11400000
MonoBehaviour:
  m_ObjectHideFlags: 0
  m_CorrespondingSourceObject: {fileID: 0}
  m_PrefabInstance: {fileID: 0}
  m_PrefabAsset: {fileID: 0}
  m_GameObject: {fileID: 0}
  m_Enabled: 1
  m_EditorHideFlags: 0
  m_Script: {fileID: 11500000, guid: 2c649c18e694ea141afd51e0998559a5, type: 3}
  m_Name: DashSkill
  m_EditorClassIdentifier: 
  skillCooldown: 1
  hitParticles: {fileID: 6312193958160451950, guid: 6d0ba8045881d0447870f42f811480a1,
    type: 3}
  maxDashDist: 3
  dashDefaultDist: 2
  dashTime: 0.1
  dashDamage: 10
