%YAML 1.1
%TAG !u! tag:unity3d.com,2011:
--- !u!114 &11400000
MonoBehaviour:
  m_ObjectHideFlags: 0
  m_CorrespondingSourceObject: {fileID: 0}
  m_PrefabInstance: {fileID: 0}
  m_PrefabAsset: {fileID: 0}
  m_GameObject: {fileID: 0}
  m_Enabled: 1
  m_EditorHideFlags: 0
  m_Script: {fileID: 11500000, guid: ceef163d7715dea468d85cb3f29a502b, type: 3}
  m_Name: ShotgunAttack
  m_EditorClassIdentifier: 
  attackTimeCooldown: 1
  playerDash: {x: 0, y: 0}
  playerDashTime: 0
  spawnTransform: {fileID: 5309703344159694065, guid: 79c91d99145b3e04f807f175bde3c1e6,
    type: 3}
  spawnTransformPosition: {x: 0, y: 0}
  bulletsPerShot: 3
  spread: 15
  startBulletSpeed: 8
  bulletSpeedMultiplier: 0
  bulletLifeTime: 5
  baseDamage: 25
