%YAML 1.1
%TAG !u! tag:unity3d.com,2011:
--- !u!114 &11400000
MonoBehaviour:
  m_ObjectHideFlags: 0
  m_CorrespondingSourceObject: {fileID: 0}
  m_PrefabInstance: {fileID: 0}
  m_PrefabAsset: {fileID: 0}
  m_GameObject: {fileID: 0}
  m_Enabled: 1
  m_EditorHideFlags: 0
  m_Script: {fileID: 11500000, guid: d1c31838aeb0c194ca1cf116ea034092, type: 3}
  m_Name: DashSwing
  m_EditorClassIdentifier: 
  attackTimeCooldown: 1
  entityDash: {x: 0, y: -2}
  entityDashTime: 0.1
  spawnTransform: {fileID: 3963129713339268778, guid: 3fce834b5804bb7489c75a9898706ae1,
    type: 3}
  spawnTransformPosition: {x: 0, y: -1}
